example_id                           | status | run_time        |
------------------------------------ | ------ | --------------- |
./spec/TestCases/Smoke/test1.rb[1:1] | failed | 0.00017 seconds |
./spec/TestCases/Smoke/test2.rb[1:1] | failed | 12.31 seconds   |
